id,name,date,room,level,seconds,timestamp
167,fitbit,Mon Mar 23 2020 01:24:00 GMT+0900 (GMT+09:00),0,wake,960,Tue Mar 24 2020 00:20:00 GMT+0900 (GMT+09:00)
168,fitbit,Mon Mar 23 2020 01:40:00 GMT+0900 (GMT+09:00),0,light,1200,Tue Mar 24 2020 00:20:00 GMT+0900 (GMT+09:00)
169,fitbit,Mon Mar 23 2020 02:00:00 GMT+0900 (GMT+09:00),0,deep,1920,Tue Mar 24 2020 00:20:00 GMT+0900 (GMT+09:00)
170,fitbit,Mon Mar 23 2020 02:32:00 GMT+0900 (GMT+09:00),0,light,1170,Tue Mar 24 2020 00:20:00 GMT+0900 (GMT+09:00)
171,fitbit,Mon Mar 23 2020 02:51:30 GMT+0900 (GMT+09:00),0,wake,240,Tue Mar 24 2020 00:20:00 GMT+0900 (GMT+09:00)
172,fitbit,Mon Mar 23 2020 02:55:30 GMT+0900 (GMT+09:00),0,light,270,Tue Mar 24 2020 00:20:00 GMT+0900 (GMT+09:00)
173,fitbit,Mon Mar 23 2020 03:00:00 GMT+0900 (GMT+09:00),0,rem,1290,Tue Mar 24 2020 00:20:00 GMT+0900 (GMT+09:00)
174,fitbit,Mon Mar 23 2020 03:21:30 GMT+0900 (GMT+09:00),0,light,2700,Tue Mar 24 2020 00:20:00 GMT+0900 (GMT+09:00)
175,fitbit,Mon Mar 23 2020 04:06:30 GMT+0900 (GMT+09:00),0,rem,330,Tue Mar 24 2020 00:20:00 GMT+0900 (GMT+09:00)
176,fitbit,Mon Mar 23 2020 04:12:00 GMT+0900 (GMT+09:00),0,light,540,Tue Mar 24 2020 00:20:00 GMT+0900 (GMT+09:00)
177,fitbit,Mon Mar 23 2020 04:21:00 GMT+0900 (GMT+09:00),0,deep,600,Tue Mar 24 2020 00:20:00 GMT+0900 (GMT+09:00)
178,fitbit,Mon Mar 23 2020 04:31:00 GMT+0900 (GMT+09:00),0,wake,210,Tue Mar 24 2020 00:20:00 GMT+0900 (GMT+09:00)
179,fitbit,Mon Mar 23 2020 04:34:30 GMT+0900 (GMT+09:00),0,light,1950,Tue Mar 24 2020 00:20:00 GMT+0900 (GMT+09:00)
180,fitbit,Mon Mar 23 2020 05:07:00 GMT+0900 (GMT+09:00),0,deep,330,Tue Mar 24 2020 00:20:00 GMT+0900 (GMT+09:00)
181,fitbit,Mon Mar 23 2020 05:12:30 GMT+0900 (GMT+09:00),0,light,330,Tue Mar 24 2020 00:20:00 GMT+0900 (GMT+09:00)
182,fitbit,Mon Mar 23 2020 05:18:00 GMT+0900 (GMT+09:00),0,deep,900,Tue Mar 24 2020 00:20:00 GMT+0900 (GMT+09:00)
183,fitbit,Mon Mar 23 2020 05:33:00 GMT+0900 (GMT+09:00),0,light,240,Tue Mar 24 2020 00:20:00 GMT+0900 (GMT+09:00)
184,fitbit,Mon Mar 23 2020 05:37:00 GMT+0900 (GMT+09:00),0,rem,720,Tue Mar 24 2020 00:20:00 GMT+0900 (GMT+09:00)
185,fitbit,Mon Mar 23 2020 05:49:00 GMT+0900 (GMT+09:00),0,wake,300,Tue Mar 24 2020 00:20:00 GMT+0900 (GMT+09:00)
186,fitbit,Mon Mar 23 2020 05:54:00 GMT+0900 (GMT+09:00),0,light,1200,Tue Mar 24 2020 00:20:00 GMT+0900 (GMT+09:00)
187,fitbit,Mon Mar 23 2020 06:14:00 GMT+0900 (GMT+09:00),0,wake,360,Tue Mar 24 2020 00:20:00 GMT+0900 (GMT+09:00)
188,fitbit,Mon Mar 23 2020 06:20:00 GMT+0900 (GMT+09:00),0,light,1890,Tue Mar 24 2020 00:20:00 GMT+0900 (GMT+09:00)
189,fitbit,Mon Mar 23 2020 06:51:30 GMT+0900 (GMT+09:00),0,rem,1800,Tue Mar 24 2020 00:20:00 GMT+0900 (GMT+09:00)
190,fitbit,Tue Mar 24 2020 13:46:30 GMT+0900 (GMT+09:00),0,asleep,60,Wed Mar 25 2020 00:20:00 GMT+0900 (GMT+09:00)
191,fitbit,Tue Mar 24 2020 13:47:30 GMT+0900 (GMT+09:00),0,restless,120,Wed Mar 25 2020 00:20:00 GMT+0900 (GMT+09:00)
192,fitbit,Tue Mar 24 2020 13:49:30 GMT+0900 (GMT+09:00),0,asleep,120,Wed Mar 25 2020 00:20:00 GMT+0900 (GMT+09:00)
193,fitbit,Tue Mar 24 2020 13:51:30 GMT+0900 (GMT+09:00),0,restless,60,Wed Mar 25 2020 00:20:00 GMT+0900 (GMT+09:00)
194,fitbit,Tue Mar 24 2020 13:52:30 GMT+0900 (GMT+09:00),0,asleep,1260,Wed Mar 25 2020 00:20:00 GMT+0900 (GMT+09:00)
195,fitbit,Tue Mar 24 2020 14:13:30 GMT+0900 (GMT+09:00),0,restless,120,Wed Mar 25 2020 00:20:00 GMT+0900 (GMT+09:00)
196,fitbit,Tue Mar 24 2020 14:15:30 GMT+0900 (GMT+09:00),0,asleep,60,Wed Mar 25 2020 00:20:00 GMT+0900 (GMT+09:00)
197,fitbit,Tue Mar 24 2020 14:16:30 GMT+0900 (GMT+09:00),0,restless,180,Wed Mar 25 2020 00:20:00 GMT+0900 (GMT+09:00)
198,fitbit,Tue Mar 24 2020 14:19:30 GMT+0900 (GMT+09:00),0,asleep,120,Wed Mar 25 2020 00:20:00 GMT+0900 (GMT+09:00)
199,fitbit,Tue Mar 24 2020 14:21:30 GMT+0900 (GMT+09:00),0,restless,120,Wed Mar 25 2020 00:20:00 GMT+0900 (GMT+09:00)
200,fitbit,Tue Mar 24 2020 14:23:30 GMT+0900 (GMT+09:00),0,asleep,540,Wed Mar 25 2020 00:20:00 GMT+0900 (GMT+09:00)
201,fitbit,Tue Mar 24 2020 14:32:30 GMT+0900 (GMT+09:00),0,restless,120,Wed Mar 25 2020 00:20:00 GMT+0900 (GMT+09:00)
202,fitbit,Tue Mar 24 2020 14:34:30 GMT+0900 (GMT+09:00),0,asleep,1500,Wed Mar 25 2020 00:20:00 GMT+0900 (GMT+09:00)
203,fitbit,Tue Mar 24 2020 22:39:30 GMT+0900 (GMT+09:00),0,light,3420,Thu Mar 26 2020 00:20:00 GMT+0900 (GMT+09:00)
204,fitbit,Tue Mar 24 2020 23:36:30 GMT+0900 (GMT+09:00),0,deep,2220,Thu Mar 26 2020 00:20:00 GMT+0900 (GMT+09:00)
205,fitbit,Wed Mar 25 2020 00:13:30 GMT+0900 (GMT+09:00),0,light,1530,Thu Mar 26 2020 00:20:00 GMT+0900 (GMT+09:00)
206,fitbit,Wed Mar 25 2020 00:39:00 GMT+0900 (GMT+09:00),0,deep,900,Thu Mar 26 2020 00:20:00 GMT+0900 (GMT+09:00)
207,fitbit,Wed Mar 25 2020 00:54:00 GMT+0900 (GMT+09:00),0,light,480,Thu Mar 26 2020 00:20:00 GMT+0900 (GMT+09:00)
208,fitbit,Wed Mar 25 2020 01:02:00 GMT+0900 (GMT+09:00),0,wake,270,Thu Mar 26 2020 00:20:00 GMT+0900 (GMT+09:00)
209,fitbit,Wed Mar 25 2020 01:06:30 GMT+0900 (GMT+09:00),0,light,1470,Thu Mar 26 2020 00:20:00 GMT+0900 (GMT+09:00)
210,fitbit,Wed Mar 25 2020 01:31:00 GMT+0900 (GMT+09:00),0,rem,2280,Thu Mar 26 2020 00:20:00 GMT+0900 (GMT+09:00)
211,fitbit,Wed Mar 25 2020 02:09:00 GMT+0900 (GMT+09:00),0,light,3150,Thu Mar 26 2020 00:20:00 GMT+0900 (GMT+09:00)
212,fitbit,Wed Mar 25 2020 03:01:30 GMT+0900 (GMT+09:00),0,deep,1980,Thu Mar 26 2020 00:20:00 GMT+0900 (GMT+09:00)
213,fitbit,Wed Mar 25 2020 03:34:30 GMT+0900 (GMT+09:00),0,light,330,Thu Mar 26 2020 00:20:00 GMT+0900 (GMT+09:00)
214,fitbit,Wed Mar 25 2020 03:40:00 GMT+0900 (GMT+09:00),0,rem,270,Thu Mar 26 2020 00:20:00 GMT+0900 (GMT+09:00)
215,fitbit,Wed Mar 25 2020 03:44:30 GMT+0900 (GMT+09:00),0,light,750,Thu Mar 26 2020 00:20:00 GMT+0900 (GMT+09:00)
216,fitbit,Wed Mar 25 2020 03:57:00 GMT+0900 (GMT+09:00),0,rem,960,Thu Mar 26 2020 00:20:00 GMT+0900 (GMT+09:00)
217,fitbit,Wed Mar 25 2020 04:13:00 GMT+0900 (GMT+09:00),0,light,1800,Thu Mar 26 2020 00:20:00 GMT+0900 (GMT+09:00)
218,fitbit,Wed Mar 25 2020 04:43:00 GMT+0900 (GMT+09:00),0,wake,510,Thu Mar 26 2020 00:20:00 GMT+0900 (GMT+09:00)
219,fitbit,Wed Mar 25 2020 04:51:30 GMT+0900 (GMT+09:00),0,light,2850,Thu Mar 26 2020 00:20:00 GMT+0900 (GMT+09:00)
220,fitbit,Wed Mar 25 2020 05:39:00 GMT+0900 (GMT+09:00),0,rem,300,Thu Mar 26 2020 00:20:00 GMT+0900 (GMT+09:00)
221,fitbit,Wed Mar 25 2020 05:44:00 GMT+0900 (GMT+09:00),0,wake,390,Thu Mar 26 2020 00:20:00 GMT+0900 (GMT+09:00)
222,fitbit,Wed Mar 25 2020 05:50:30 GMT+0900 (GMT+09:00),0,light,210,Thu Mar 26 2020 00:20:00 GMT+0900 (GMT+09:00)
223,fitbit,Wed Mar 25 2020 05:54:00 GMT+0900 (GMT+09:00),0,rem,1110,Thu Mar 26 2020 00:20:00 GMT+0900 (GMT+09:00)
224,fitbit,Wed Mar 25 2020 06:12:30 GMT+0900 (GMT+09:00),0,light,1110,Thu Mar 26 2020 00:20:00 GMT+0900 (GMT+09:00)
225,fitbit,Wed Mar 25 2020 06:31:00 GMT+0900 (GMT+09:00),0,deep,1770,Thu Mar 26 2020 00:20:00 GMT+0900 (GMT+09:00)
226,fitbit,Wed Mar 25 2020 07:00:30 GMT+0900 (GMT+09:00),0,light,720,Thu Mar 26 2020 00:20:00 GMT+0900 (GMT+09:00)
227,fitbit,Wed Mar 25 2020 07:12:30 GMT+0900 (GMT+09:00),0,wake,840,Thu Mar 26 2020 00:20:00 GMT+0900 (GMT+09:00)
228,fitbit,Wed Mar 25 2020 07:26:30 GMT+0900 (GMT+09:00),0,light,150,Thu Mar 26 2020 00:20:00 GMT+0900 (GMT+09:00)
229,fitbit,Wed Mar 25 2020 07:29:00 GMT+0900 (GMT+09:00),0,wake,360,Thu Mar 26 2020 00:20:00 GMT+0900 (GMT+09:00)
230,fitbit,Wed Mar 25 2020 07:35:00 GMT+0900 (GMT+09:00),0,light,2550,Thu Mar 26 2020 00:20:00 GMT+0900 (GMT+09:00)
231,fitbit,Wed Mar 25 2020 08:17:30 GMT+0900 (GMT+09:00),0,wake,330,Thu Mar 26 2020 00:20:00 GMT+0900 (GMT+09:00)
232,fitbit,Wed Mar 25 2020 08:23:00 GMT+0900 (GMT+09:00),0,light,810,Thu Mar 26 2020 00:20:00 GMT+0900 (GMT+09:00)
233,fitbit,Wed Mar 25 2020 08:36:30 GMT+0900 (GMT+09:00),0,rem,270,Thu Mar 26 2020 00:20:00 GMT+0900 (GMT+09:00)
234,fitbit,Wed Mar 25 2020 08:41:00 GMT+0900 (GMT+09:00),0,wake,810,Thu Mar 26 2020 00:20:00 GMT+0900 (GMT+09:00)
235,fitbit,Wed Mar 25 2020 08:54:30 GMT+0900 (GMT+09:00),0,light,210,Thu Mar 26 2020 00:20:00 GMT+0900 (GMT+09:00)
236,fitbit,Wed Mar 25 2020 08:58:00 GMT+0900 (GMT+09:00),0,rem,330,Thu Mar 26 2020 00:20:00 GMT+0900 (GMT+09:00)
237,fitbit,Wed Mar 25 2020 09:03:30 GMT+0900 (GMT+09:00),0,light,1470,Thu Mar 26 2020 00:20:00 GMT+0900 (GMT+09:00)
238,fitbit,Wed Mar 25 2020 09:28:00 GMT+0900 (GMT+09:00),0,wake,1050,Thu Mar 26 2020 00:20:00 GMT+0900 (GMT+09:00)
239,fitbit,Thu Mar 26 2020 02:06:30 GMT+0900 (GMT+09:00),0,wake,30,Fri Mar 27 2020 00:20:00 GMT+0900 (GMT+09:00)
240,fitbit,Thu Mar 26 2020 02:07:00 GMT+0900 (GMT+09:00),0,light,1080,Fri Mar 27 2020 00:20:00 GMT+0900 (GMT+09:00)
241,fitbit,Thu Mar 26 2020 02:25:00 GMT+0900 (GMT+09:00),0,deep,2670,Fri Mar 27 2020 00:20:00 GMT+0900 (GMT+09:00)
242,fitbit,Thu Mar 26 2020 03:09:30 GMT+0900 (GMT+09:00),0,light,330,Fri Mar 27 2020 00:20:00 GMT+0900 (GMT+09:00)
243,fitbit,Thu Mar 26 2020 03:15:00 GMT+0900 (GMT+09:00),0,rem,330,Fri Mar 27 2020 00:20:00 GMT+0900 (GMT+09:00)
244,fitbit,Thu Mar 26 2020 03:20:30 GMT+0900 (GMT+09:00),0,light,6390,Fri Mar 27 2020 00:20:00 GMT+0900 (GMT+09:00)
245,fitbit,Thu Mar 26 2020 05:07:00 GMT+0900 (GMT+09:00),0,rem,2220,Fri Mar 27 2020 00:20:00 GMT+0900 (GMT+09:00)
246,fitbit,Thu Mar 26 2020 05:44:00 GMT+0900 (GMT+09:00),0,light,2730,Fri Mar 27 2020 00:20:00 GMT+0900 (GMT+09:00)
247,fitbit,Thu Mar 26 2020 06:29:30 GMT+0900 (GMT+09:00),0,deep,1050,Fri Mar 27 2020 00:20:00 GMT+0900 (GMT+09:00)
248,fitbit,Thu Mar 26 2020 06:47:00 GMT+0900 (GMT+09:00),0,light,6060,Fri Mar 27 2020 00:20:00 GMT+0900 (GMT+09:00)
249,fitbit,Thu Mar 26 2020 08:28:00 GMT+0900 (GMT+09:00),0,rem,450,Fri Mar 27 2020 00:20:00 GMT+0900 (GMT+09:00)
250,fitbit,Thu Mar 26 2020 08:35:30 GMT+0900 (GMT+09:00),0,light,750,Fri Mar 27 2020 00:20:00 GMT+0900 (GMT+09:00)
251,fitbit,Thu Mar 26 2020 08:48:00 GMT+0900 (GMT+09:00),0,rem,330,Fri Mar 27 2020 00:20:00 GMT+0900 (GMT+09:00)
252,fitbit,Thu Mar 26 2020 08:53:30 GMT+0900 (GMT+09:00),0,light,900,Fri Mar 27 2020 00:20:00 GMT+0900 (GMT+09:00)
253,fitbit,Thu Mar 26 2020 09:08:30 GMT+0900 (GMT+09:00),0,wake,720,Fri Mar 27 2020 00:20:00 GMT+0900 (GMT+09:00)
254,fitbit,Thu Mar 26 2020 09:20:30 GMT+0900 (GMT+09:00),0,light,270,Fri Mar 27 2020 00:20:00 GMT+0900 (GMT+09:00)
255,fitbit,Thu Mar 26 2020 09:25:00 GMT+0900 (GMT+09:00),0,rem,510,Fri Mar 27 2020 00:20:00 GMT+0900 (GMT+09:00)
256,fitbit,Thu Mar 26 2020 09:33:30 GMT+0900 (GMT+09:00),0,wake,390,Fri Mar 27 2020 00:20:00 GMT+0900 (GMT+09:00)
257,fitbit,Thu Mar 26 2020 09:40:00 GMT+0900 (GMT+09:00),0,light,1470,Fri Mar 27 2020 00:20:00 GMT+0900 (GMT+09:00)
258,fitbit,Thu Mar 26 2020 10:04:30 GMT+0900 (GMT+09:00),0,deep,750,Fri Mar 27 2020 00:20:00 GMT+0900 (GMT+09:00)
259,fitbit,Thu Mar 26 2020 10:17:00 GMT+0900 (GMT+09:00),0,wake,480,Fri Mar 27 2020 00:20:00 GMT+0900 (GMT+09:00)
260,fitbit,Thu Mar 26 2020 10:25:00 GMT+0900 (GMT+09:00),0,light,600,Fri Mar 27 2020 00:20:00 GMT+0900 (GMT+09:00)
261,fitbit,Thu Mar 26 2020 10:35:00 GMT+0900 (GMT+09:00),0,wake,210,Fri Mar 27 2020 00:20:00 GMT+0900 (GMT+09:00)
262,fitbit,Thu Mar 26 2020 10:38:30 GMT+0900 (GMT+09:00),0,light,150,Fri Mar 27 2020 00:20:00 GMT+0900 (GMT+09:00)
263,fitbit,Thu Mar 26 2020 10:41:00 GMT+0900 (GMT+09:00),0,rem,990,Fri Mar 27 2020 00:20:00 GMT+0900 (GMT+09:00)
264,fitbit,Thu Mar 26 2020 10:57:30 GMT+0900 (GMT+09:00),0,light,120,Fri Mar 27 2020 00:20:00 GMT+0900 (GMT+09:00)
265,fitbit,Thu Mar 26 2020 10:59:30 GMT+0900 (GMT+09:00),0,wake,390,Fri Mar 27 2020 00:20:00 GMT+0900 (GMT+09:00)
266,fitbit,Thu Mar 26 2020 11:06:00 GMT+0900 (GMT+09:00),0,light,1500,Fri Mar 27 2020 00:20:00 GMT+0900 (GMT+09:00)
267,fitbit,Thu Mar 26 2020 11:31:00 GMT+0900 (GMT+09:00),0,wake,300,Fri Mar 27 2020 00:20:00 GMT+0900 (GMT+09:00)
268,fitbit,Thu Mar 26 2020 11:36:00 GMT+0900 (GMT+09:00),0,light,1530,Fri Mar 27 2020 00:20:00 GMT+0900 (GMT+09:00)
269,fitbit,Thu Mar 26 2020 21:57:00 GMT+0900 (GMT+09:00),0,wake,720,Sat Mar 28 2020 00:20:00 GMT+0900 (GMT+09:00)
270,fitbit,Thu Mar 26 2020 22:09:00 GMT+0900 (GMT+09:00),0,light,150,Sat Mar 28 2020 00:20:00 GMT+0900 (GMT+09:00)
271,fitbit,Thu Mar 26 2020 22:11:30 GMT+0900 (GMT+09:00),0,deep,270,Sat Mar 28 2020 00:20:00 GMT+0900 (GMT+09:00)
272,fitbit,Thu Mar 26 2020 22:16:00 GMT+0900 (GMT+09:00),0,light,780,Sat Mar 28 2020 00:20:00 GMT+0900 (GMT+09:00)
273,fitbit,Thu Mar 26 2020 22:29:00 GMT+0900 (GMT+09:00),0,deep,2400,Sat Mar 28 2020 00:20:00 GMT+0900 (GMT+09:00)
274,fitbit,Thu Mar 26 2020 23:09:00 GMT+0900 (GMT+09:00),0,wake,330,Sat Mar 28 2020 00:20:00 GMT+0900 (GMT+09:00)
275,fitbit,Thu Mar 26 2020 23:14:30 GMT+0900 (GMT+09:00),0,light,2640,Sat Mar 28 2020 00:20:00 GMT+0900 (GMT+09:00)
276,fitbit,Thu Mar 26 2020 23:58:30 GMT+0900 (GMT+09:00),0,deep,750,Sat Mar 28 2020 00:20:00 GMT+0900 (GMT+09:00)
277,fitbit,Fri Mar 27 2020 00:11:00 GMT+0900 (GMT+09:00),0,light,270,Sat Mar 28 2020 00:20:00 GMT+0900 (GMT+09:00)
278,fitbit,Fri Mar 27 2020 00:15:30 GMT+0900 (GMT+09:00),0,wake,330,Sat Mar 28 2020 00:20:00 GMT+0900 (GMT+09:00)
279,fitbit,Fri Mar 27 2020 00:21:00 GMT+0900 (GMT+09:00),0,light,1560,Sat Mar 28 2020 00:20:00 GMT+0900 (GMT+09:00)
280,fitbit,Fri Mar 27 2020 00:47:00 GMT+0900 (GMT+09:00),0,rem,2370,Sat Mar 28 2020 00:20:00 GMT+0900 (GMT+09:00)
281,fitbit,Fri Mar 27 2020 01:26:30 GMT+0900 (GMT+09:00),0,light,1260,Sat Mar 28 2020 00:20:00 GMT+0900 (GMT+09:00)
282,fitbit,Fri Mar 27 2020 01:47:30 GMT+0900 (GMT+09:00),0,deep,1410,Sat Mar 28 2020 00:20:00 GMT+0900 (GMT+09:00)
283,fitbit,Fri Mar 27 2020 02:11:00 GMT+0900 (GMT+09:00),0,light,330,Sat Mar 28 2020 00:20:00 GMT+0900 (GMT+09:00)
284,fitbit,Fri Mar 27 2020 02:16:30 GMT+0900 (GMT+09:00),0,rem,270,Sat Mar 28 2020 00:20:00 GMT+0900 (GMT+09:00)
285,fitbit,Fri Mar 27 2020 02:21:00 GMT+0900 (GMT+09:00),0,light,1830,Sat Mar 28 2020 00:20:00 GMT+0900 (GMT+09:00)
286,fitbit,Fri Mar 27 2020 02:51:30 GMT+0900 (GMT+09:00),0,wake,330,Sat Mar 28 2020 00:20:00 GMT+0900 (GMT+09:00)
287,fitbit,Fri Mar 27 2020 02:57:00 GMT+0900 (GMT+09:00),0,light,1170,Sat Mar 28 2020 00:20:00 GMT+0900 (GMT+09:00)
288,fitbit,Fri Mar 27 2020 03:16:30 GMT+0900 (GMT+09:00),0,rem,450,Sat Mar 28 2020 00:20:00 GMT+0900 (GMT+09:00)
289,fitbit,Fri Mar 27 2020 03:24:00 GMT+0900 (GMT+09:00),0,light,330,Sat Mar 28 2020 00:20:00 GMT+0900 (GMT+09:00)
290,fitbit,Fri Mar 27 2020 03:29:30 GMT+0900 (GMT+09:00),0,wake,270,Sat Mar 28 2020 00:20:00 GMT+0900 (GMT+09:00)
291,fitbit,Fri Mar 27 2020 03:34:00 GMT+0900 (GMT+09:00),0,light,2310,Sat Mar 28 2020 00:20:00 GMT+0900 (GMT+09:00)
292,fitbit,Fri Mar 27 2020 04:12:30 GMT+0900 (GMT+09:00),0,deep,1260,Sat Mar 28 2020 00:20:00 GMT+0900 (GMT+09:00)
293,fitbit,Fri Mar 27 2020 04:33:30 GMT+0900 (GMT+09:00),0,wake,330,Sat Mar 28 2020 00:20:00 GMT+0900 (GMT+09:00)
294,fitbit,Fri Mar 27 2020 04:39:00 GMT+0900 (GMT+09:00),0,light,2100,Sat Mar 28 2020 00:20:00 GMT+0900 (GMT+09:00)
295,fitbit,Fri Mar 27 2020 05:14:00 GMT+0900 (GMT+09:00),0,rem,1920,Sat Mar 28 2020 00:20:00 GMT+0900 (GMT+09:00)
296,fitbit,Fri Mar 27 2020 05:46:00 GMT+0900 (GMT+09:00),0,light,3750,Sat Mar 28 2020 00:20:00 GMT+0900 (GMT+09:00)
297,fitbit,Fri Mar 27 2020 06:48:30 GMT+0900 (GMT+09:00),0,rem,1050,Sat Mar 28 2020 00:20:00 GMT+0900 (GMT+09:00)
298,fitbit,Fri Mar 27 2020 07:06:00 GMT+0900 (GMT+09:00),0,light,330,Sat Mar 28 2020 00:20:00 GMT+0900 (GMT+09:00)
299,fitbit,Fri Mar 27 2020 07:11:30 GMT+0900 (GMT+09:00),0,rem,990,Sat Mar 28 2020 00:20:00 GMT+0900 (GMT+09:00)
300,fitbit,Fri Mar 27 2020 07:28:00 GMT+0900 (GMT+09:00),0,wake,990,Sat Mar 28 2020 00:20:00 GMT+0900 (GMT+09:00)
301,fitbit,Fri Mar 27 2020 07:44:30 GMT+0900 (GMT+09:00),0,light,4560,Sat Mar 28 2020 00:20:00 GMT+0900 (GMT+09:00)
302,fitbit,Fri Mar 27 2020 09:00:30 GMT+0900 (GMT+09:00),0,rem,2340,Sat Mar 28 2020 00:20:00 GMT+0900 (GMT+09:00)
303,fitbit,Fri Mar 27 2020 09:39:30 GMT+0900 (GMT+09:00),0,light,390,Sat Mar 28 2020 00:20:00 GMT+0900 (GMT+09:00)
304,fitbit,Fri Mar 27 2020 09:46:00 GMT+0900 (GMT+09:00),0,wake,480,Sat Mar 28 2020 00:20:00 GMT+0900 (GMT+09:00)
305,fitbit,Fri Mar 27 2020 09:54:00 GMT+0900 (GMT+09:00),0,light,2520,Sat Mar 28 2020 00:20:00 GMT+0900 (GMT+09:00)
306,fitbit,Fri Mar 27 2020 10:36:00 GMT+0900 (GMT+09:00),0,wake,960,Sat Mar 28 2020 00:20:00 GMT+0900 (GMT+09:00)
307,fitbit,Fri Mar 27 2020 10:52:00 GMT+0900 (GMT+09:00),0,light,1500,Sat Mar 28 2020 00:20:00 GMT+0900 (GMT+09:00)
308,fitbit,Fri Mar 27 2020 11:17:00 GMT+0900 (GMT+09:00),0,wake,330,Sat Mar 28 2020 00:20:00 GMT+0900 (GMT+09:00)
309,fitbit,Fri Mar 27 2020 11:22:30 GMT+0900 (GMT+09:00),0,light,90,Sat Mar 28 2020 00:20:00 GMT+0900 (GMT+09:00)
