id,name,date,room,level,seconds,timestamp
1,fitbit,Mon Mar 09 2020 01:01:00 GMT+0900 (GMT+09:00),0,wake,570,Tue Mar 10 2020 00:20:00 GMT+0900 (GMT+09:00)
2,fitbit,Mon Mar 09 2020 01:10:30 GMT+0900 (GMT+09:00),0,light,960,Tue Mar 10 2020 00:20:00 GMT+0900 (GMT+09:00)
3,fitbit,Mon Mar 09 2020 01:26:30 GMT+0900 (GMT+09:00),0,deep,1590,Tue Mar 10 2020 00:20:00 GMT+0900 (GMT+09:00)
4,fitbit,Mon Mar 09 2020 01:53:00 GMT+0900 (GMT+09:00),0,light,1680,Tue Mar 10 2020 00:20:00 GMT+0900 (GMT+09:00)
5,fitbit,Mon Mar 09 2020 02:21:00 GMT+0900 (GMT+09:00),0,rem,1290,Tue Mar 10 2020 00:20:00 GMT+0900 (GMT+09:00)
6,fitbit,Mon Mar 09 2020 02:42:30 GMT+0900 (GMT+09:00),0,light,210,Tue Mar 10 2020 00:20:00 GMT+0900 (GMT+09:00)
7,fitbit,Mon Mar 09 2020 02:46:00 GMT+0900 (GMT+09:00),0,deep,1680,Tue Mar 10 2020 00:20:00 GMT+0900 (GMT+09:00)
8,fitbit,Mon Mar 09 2020 03:14:00 GMT+0900 (GMT+09:00),0,light,1290,Tue Mar 10 2020 00:20:00 GMT+0900 (GMT+09:00)
9,fitbit,Mon Mar 09 2020 03:35:30 GMT+0900 (GMT+09:00),0,deep,300,Tue Mar 10 2020 00:20:00 GMT+0900 (GMT+09:00)
10,fitbit,Mon Mar 09 2020 03:40:30 GMT+0900 (GMT+09:00),0,light,2550,Tue Mar 10 2020 00:20:00 GMT+0900 (GMT+09:00)
11,fitbit,Mon Mar 09 2020 04:23:00 GMT+0900 (GMT+09:00),0,rem,1470,Tue Mar 10 2020 00:20:00 GMT+0900 (GMT+09:00)
12,fitbit,Mon Mar 09 2020 04:47:30 GMT+0900 (GMT+09:00),0,light,1350,Tue Mar 10 2020 00:20:00 GMT+0900 (GMT+09:00)
13,fitbit,Mon Mar 09 2020 05:10:00 GMT+0900 (GMT+09:00),0,deep,390,Tue Mar 10 2020 00:20:00 GMT+0900 (GMT+09:00)
14,fitbit,Mon Mar 09 2020 05:16:30 GMT+0900 (GMT+09:00),0,light,3180,Tue Mar 10 2020 00:20:00 GMT+0900 (GMT+09:00)
15,fitbit,Mon Mar 09 2020 06:09:30 GMT+0900 (GMT+09:00),0,rem,1590,Tue Mar 10 2020 00:20:00 GMT+0900 (GMT+09:00)
16,fitbit,Mon Mar 09 2020 06:36:00 GMT+0900 (GMT+09:00),0,wake,300,Tue Mar 10 2020 00:20:00 GMT+0900 (GMT+09:00)
17,fitbit,Mon Mar 09 2020 06:41:00 GMT+0900 (GMT+09:00),0,light,2910,Tue Mar 10 2020 00:20:00 GMT+0900 (GMT+09:00)
18,fitbit,Mon Mar 09 2020 07:29:30 GMT+0900 (GMT+09:00),0,deep,390,Tue Mar 10 2020 00:20:00 GMT+0900 (GMT+09:00)
19,fitbit,Mon Mar 09 2020 07:36:00 GMT+0900 (GMT+09:00),0,light,630,Tue Mar 10 2020 00:20:00 GMT+0900 (GMT+09:00)
20,fitbit,Mon Mar 09 2020 07:46:30 GMT+0900 (GMT+09:00),0,rem,1140,Tue Mar 10 2020 00:20:00 GMT+0900 (GMT+09:00)
21,fitbit,Mon Mar 09 2020 08:05:30 GMT+0900 (GMT+09:00),0,light,1140,Tue Mar 10 2020 00:20:00 GMT+0900 (GMT+09:00)
22,fitbit,Tue Mar 10 2020 02:01:30 GMT+0900 (GMT+09:00),0,wake,900,Wed Mar 11 2020 00:20:00 GMT+0900 (GMT+09:00)
23,fitbit,Tue Mar 10 2020 02:16:30 GMT+0900 (GMT+09:00),0,light,390,Wed Mar 11 2020 00:20:00 GMT+0900 (GMT+09:00)
24,fitbit,Tue Mar 10 2020 02:23:00 GMT+0900 (GMT+09:00),0,deep,480,Wed Mar 11 2020 00:20:00 GMT+0900 (GMT+09:00)
25,fitbit,Tue Mar 10 2020 02:31:00 GMT+0900 (GMT+09:00),0,light,1590,Wed Mar 11 2020 00:20:00 GMT+0900 (GMT+09:00)
26,fitbit,Tue Mar 10 2020 02:57:30 GMT+0900 (GMT+09:00),0,deep,360,Wed Mar 11 2020 00:20:00 GMT+0900 (GMT+09:00)
27,fitbit,Tue Mar 10 2020 03:03:30 GMT+0900 (GMT+09:00),0,light,1020,Wed Mar 11 2020 00:20:00 GMT+0900 (GMT+09:00)
28,fitbit,Tue Mar 10 2020 03:20:30 GMT+0900 (GMT+09:00),0,rem,270,Wed Mar 11 2020 00:20:00 GMT+0900 (GMT+09:00)
29,fitbit,Tue Mar 10 2020 03:25:00 GMT+0900 (GMT+09:00),0,wake,450,Wed Mar 11 2020 00:20:00 GMT+0900 (GMT+09:00)
30,fitbit,Tue Mar 10 2020 03:32:30 GMT+0900 (GMT+09:00),0,light,330,Wed Mar 11 2020 00:20:00 GMT+0900 (GMT+09:00)
31,fitbit,Tue Mar 10 2020 03:38:00 GMT+0900 (GMT+09:00),0,rem,360,Wed Mar 11 2020 00:20:00 GMT+0900 (GMT+09:00)
32,fitbit,Tue Mar 10 2020 03:44:00 GMT+0900 (GMT+09:00),0,light,90,Wed Mar 11 2020 00:20:00 GMT+0900 (GMT+09:00)
33,fitbit,Tue Mar 10 2020 03:45:30 GMT+0900 (GMT+09:00),0,deep,300,Wed Mar 11 2020 00:20:00 GMT+0900 (GMT+09:00)
34,fitbit,Tue Mar 10 2020 03:50:30 GMT+0900 (GMT+09:00),0,light,540,Wed Mar 11 2020 00:20:00 GMT+0900 (GMT+09:00)
35,fitbit,Tue Mar 10 2020 03:59:30 GMT+0900 (GMT+09:00),0,deep,2010,Wed Mar 11 2020 00:20:00 GMT+0900 (GMT+09:00)
36,fitbit,Tue Mar 10 2020 04:33:00 GMT+0900 (GMT+09:00),0,light,2970,Wed Mar 11 2020 00:20:00 GMT+0900 (GMT+09:00)
37,fitbit,Tue Mar 10 2020 05:22:30 GMT+0900 (GMT+09:00),0,wake,300,Wed Mar 11 2020 00:20:00 GMT+0900 (GMT+09:00)
38,fitbit,Tue Mar 10 2020 05:27:30 GMT+0900 (GMT+09:00),0,light,630,Wed Mar 11 2020 00:20:00 GMT+0900 (GMT+09:00)
39,fitbit,Tue Mar 10 2020 05:38:00 GMT+0900 (GMT+09:00),0,rem,330,Wed Mar 11 2020 00:20:00 GMT+0900 (GMT+09:00)
40,fitbit,Tue Mar 10 2020 05:43:30 GMT+0900 (GMT+09:00),0,wake,450,Wed Mar 11 2020 00:20:00 GMT+0900 (GMT+09:00)
41,fitbit,Tue Mar 10 2020 05:51:00 GMT+0900 (GMT+09:00),0,light,1890,Wed Mar 11 2020 00:20:00 GMT+0900 (GMT+09:00)
42,fitbit,Tue Mar 10 2020 06:22:30 GMT+0900 (GMT+09:00),0,deep,1170,Wed Mar 11 2020 00:20:00 GMT+0900 (GMT+09:00)
43,fitbit,Tue Mar 10 2020 06:42:00 GMT+0900 (GMT+09:00),0,light,690,Wed Mar 11 2020 00:20:00 GMT+0900 (GMT+09:00)
44,fitbit,Tue Mar 10 2020 06:53:30 GMT+0900 (GMT+09:00),0,deep,360,Wed Mar 11 2020 00:20:00 GMT+0900 (GMT+09:00)
45,fitbit,Tue Mar 10 2020 06:59:30 GMT+0900 (GMT+09:00),0,wake,240,Wed Mar 11 2020 00:20:00 GMT+0900 (GMT+09:00)
46,fitbit,Tue Mar 10 2020 07:03:30 GMT+0900 (GMT+09:00),0,light,780,Wed Mar 11 2020 00:20:00 GMT+0900 (GMT+09:00)
47,fitbit,Tue Mar 10 2020 07:16:30 GMT+0900 (GMT+09:00),0,rem,2100,Wed Mar 11 2020 00:20:00 GMT+0900 (GMT+09:00)
48,fitbit,Wed Mar 11 2020 02:39:30 GMT+0900 (GMT+09:00),0,wake,330,Thu Mar 12 2020 00:20:00 GMT+0900 (GMT+09:00)
49,fitbit,Wed Mar 11 2020 02:45:00 GMT+0900 (GMT+09:00),0,light,900,Thu Mar 12 2020 00:20:00 GMT+0900 (GMT+09:00)
50,fitbit,Wed Mar 11 2020 03:00:00 GMT+0900 (GMT+09:00),0,deep,1110,Thu Mar 12 2020 00:20:00 GMT+0900 (GMT+09:00)
51,fitbit,Wed Mar 11 2020 03:18:30 GMT+0900 (GMT+09:00),0,light,450,Thu Mar 12 2020 00:20:00 GMT+0900 (GMT+09:00)
52,fitbit,Wed Mar 11 2020 03:26:00 GMT+0900 (GMT+09:00),0,deep,930,Thu Mar 12 2020 00:20:00 GMT+0900 (GMT+09:00)
53,fitbit,Wed Mar 11 2020 03:41:30 GMT+0900 (GMT+09:00),0,light,480,Thu Mar 12 2020 00:20:00 GMT+0900 (GMT+09:00)
54,fitbit,Wed Mar 11 2020 03:49:30 GMT+0900 (GMT+09:00),0,rem,450,Thu Mar 12 2020 00:20:00 GMT+0900 (GMT+09:00)
55,fitbit,Wed Mar 11 2020 03:57:00 GMT+0900 (GMT+09:00),0,light,540,Thu Mar 12 2020 00:20:00 GMT+0900 (GMT+09:00)
56,fitbit,Wed Mar 11 2020 04:06:00 GMT+0900 (GMT+09:00),0,deep,1740,Thu Mar 12 2020 00:20:00 GMT+0900 (GMT+09:00)
57,fitbit,Wed Mar 11 2020 04:35:00 GMT+0900 (GMT+09:00),0,light,720,Thu Mar 12 2020 00:20:00 GMT+0900 (GMT+09:00)
58,fitbit,Wed Mar 11 2020 04:47:00 GMT+0900 (GMT+09:00),0,deep,570,Thu Mar 12 2020 00:20:00 GMT+0900 (GMT+09:00)
59,fitbit,Wed Mar 11 2020 04:56:30 GMT+0900 (GMT+09:00),0,light,1230,Thu Mar 12 2020 00:20:00 GMT+0900 (GMT+09:00)
60,fitbit,Wed Mar 11 2020 05:17:00 GMT+0900 (GMT+09:00),0,wake,900,Thu Mar 12 2020 00:20:00 GMT+0900 (GMT+09:00)
61,fitbit,Wed Mar 11 2020 05:32:00 GMT+0900 (GMT+09:00),0,light,1710,Thu Mar 12 2020 00:20:00 GMT+0900 (GMT+09:00)
62,fitbit,Wed Mar 11 2020 06:00:30 GMT+0900 (GMT+09:00),0,deep,990,Thu Mar 12 2020 00:20:00 GMT+0900 (GMT+09:00)
63,fitbit,Wed Mar 11 2020 06:17:00 GMT+0900 (GMT+09:00),0,light,360,Thu Mar 12 2020 00:20:00 GMT+0900 (GMT+09:00)
64,fitbit,Wed Mar 11 2020 06:23:00 GMT+0900 (GMT+09:00),0,rem,2190,Thu Mar 12 2020 00:20:00 GMT+0900 (GMT+09:00)
65,fitbit,Wed Mar 11 2020 06:59:30 GMT+0900 (GMT+09:00),0,light,1410,Thu Mar 12 2020 00:20:00 GMT+0900 (GMT+09:00)
66,fitbit,Wed Mar 11 2020 07:23:00 GMT+0900 (GMT+09:00),0,deep,1350,Thu Mar 12 2020 00:20:00 GMT+0900 (GMT+09:00)
67,fitbit,Wed Mar 11 2020 07:45:30 GMT+0900 (GMT+09:00),0,light,1890,Thu Mar 12 2020 00:20:00 GMT+0900 (GMT+09:00)
68,fitbit,Wed Mar 11 2020 08:17:00 GMT+0900 (GMT+09:00),0,wake,240,Thu Mar 12 2020 00:20:00 GMT+0900 (GMT+09:00)
69,fitbit,Wed Mar 11 2020 08:21:00 GMT+0900 (GMT+09:00),0,light,540,Thu Mar 12 2020 00:20:00 GMT+0900 (GMT+09:00)
70,fitbit,Wed Mar 11 2020 08:30:00 GMT+0900 (GMT+09:00),0,wake,270,Thu Mar 12 2020 00:20:00 GMT+0900 (GMT+09:00)
71,fitbit,Wed Mar 11 2020 08:34:30 GMT+0900 (GMT+09:00),0,rem,2610,Thu Mar 12 2020 00:20:00 GMT+0900 (GMT+09:00)
72,fitbit,Wed Mar 11 2020 09:18:00 GMT+0900 (GMT+09:00),0,light,1890,Thu Mar 12 2020 00:20:00 GMT+0900 (GMT+09:00)
73,fitbit,Thu Mar 12 2020 02:26:30 GMT+0900 (GMT+09:00),0,wake,150,Fri Mar 13 2020 00:20:00 GMT+0900 (GMT+09:00)
74,fitbit,Thu Mar 12 2020 02:29:00 GMT+0900 (GMT+09:00),0,light,30,Fri Mar 13 2020 00:20:00 GMT+0900 (GMT+09:00)
75,fitbit,Thu Mar 12 2020 02:29:30 GMT+0900 (GMT+09:00),0,deep,360,Fri Mar 13 2020 00:20:00 GMT+0900 (GMT+09:00)
76,fitbit,Thu Mar 12 2020 02:35:30 GMT+0900 (GMT+09:00),0,wake,450,Fri Mar 13 2020 00:20:00 GMT+0900 (GMT+09:00)
77,fitbit,Thu Mar 12 2020 02:43:00 GMT+0900 (GMT+09:00),0,deep,1890,Fri Mar 13 2020 00:20:00 GMT+0900 (GMT+09:00)
78,fitbit,Thu Mar 12 2020 03:14:30 GMT+0900 (GMT+09:00),0,light,270,Fri Mar 13 2020 00:20:00 GMT+0900 (GMT+09:00)
79,fitbit,Thu Mar 12 2020 03:19:00 GMT+0900 (GMT+09:00),0,deep,1830,Fri Mar 13 2020 00:20:00 GMT+0900 (GMT+09:00)
80,fitbit,Thu Mar 12 2020 03:49:30 GMT+0900 (GMT+09:00),0,light,3360,Fri Mar 13 2020 00:20:00 GMT+0900 (GMT+09:00)
81,fitbit,Thu Mar 12 2020 04:45:30 GMT+0900 (GMT+09:00),0,deep,1530,Fri Mar 13 2020 00:20:00 GMT+0900 (GMT+09:00)
82,fitbit,Thu Mar 12 2020 05:11:00 GMT+0900 (GMT+09:00),0,light,1560,Fri Mar 13 2020 00:20:00 GMT+0900 (GMT+09:00)
83,fitbit,Thu Mar 12 2020 05:37:00 GMT+0900 (GMT+09:00),0,rem,1320,Fri Mar 13 2020 00:20:00 GMT+0900 (GMT+09:00)
84,fitbit,Thu Mar 12 2020 05:59:00 GMT+0900 (GMT+09:00),0,light,4980,Fri Mar 13 2020 00:20:00 GMT+0900 (GMT+09:00)
85,fitbit,Thu Mar 12 2020 07:22:00 GMT+0900 (GMT+09:00),0,rem,1500,Fri Mar 13 2020 00:20:00 GMT+0900 (GMT+09:00)
86,fitbit,Thu Mar 12 2020 07:47:00 GMT+0900 (GMT+09:00),0,light,2670,Fri Mar 13 2020 00:20:00 GMT+0900 (GMT+09:00)
87,fitbit,Thu Mar 12 2020 08:31:30 GMT+0900 (GMT+09:00),0,deep,600,Fri Mar 13 2020 00:20:00 GMT+0900 (GMT+09:00)
88,fitbit,Thu Mar 12 2020 08:41:30 GMT+0900 (GMT+09:00),0,light,750,Fri Mar 13 2020 00:20:00 GMT+0900 (GMT+09:00)
89,fitbit,Thu Mar 12 2020 08:54:00 GMT+0900 (GMT+09:00),0,rem,3150,Fri Mar 13 2020 00:20:00 GMT+0900 (GMT+09:00)
90,fitbit,Thu Mar 12 2020 09:46:30 GMT+0900 (GMT+09:00),0,light,3390,Fri Mar 13 2020 00:20:00 GMT+0900 (GMT+09:00)
91,fitbit,Thu Mar 12 2020 10:43:00 GMT+0900 (GMT+09:00),0,rem,2010,Fri Mar 13 2020 00:20:00 GMT+0900 (GMT+09:00)
92,fitbit,Thu Mar 12 2020 11:16:30 GMT+0900 (GMT+09:00),0,light,1740,Fri Mar 13 2020 00:20:00 GMT+0900 (GMT+09:00)
93,fitbit,Fri Mar 13 2020 02:48:00 GMT+0900 (GMT+09:00),0,wake,360,Sat Mar 14 2020 00:20:00 GMT+0900 (GMT+09:00)
94,fitbit,Fri Mar 13 2020 02:54:00 GMT+0900 (GMT+09:00),0,light,1950,Sat Mar 14 2020 00:20:00 GMT+0900 (GMT+09:00)
95,fitbit,Fri Mar 13 2020 03:26:30 GMT+0900 (GMT+09:00),0,deep,420,Sat Mar 14 2020 00:20:00 GMT+0900 (GMT+09:00)
96,fitbit,Fri Mar 13 2020 03:33:30 GMT+0900 (GMT+09:00),0,wake,510,Sat Mar 14 2020 00:20:00 GMT+0900 (GMT+09:00)
97,fitbit,Fri Mar 13 2020 03:42:00 GMT+0900 (GMT+09:00),0,light,120,Sat Mar 14 2020 00:20:00 GMT+0900 (GMT+09:00)
98,fitbit,Fri Mar 13 2020 03:44:00 GMT+0900 (GMT+09:00),0,deep,3360,Sat Mar 14 2020 00:20:00 GMT+0900 (GMT+09:00)
99,fitbit,Fri Mar 13 2020 04:40:00 GMT+0900 (GMT+09:00),0,light,420,Sat Mar 14 2020 00:20:00 GMT+0900 (GMT+09:00)
100,fitbit,Fri Mar 13 2020 04:47:00 GMT+0900 (GMT+09:00),0,rem,1080,Sat Mar 14 2020 00:20:00 GMT+0900 (GMT+09:00)
101,fitbit,Fri Mar 13 2020 05:05:00 GMT+0900 (GMT+09:00),0,light,2850,Sat Mar 14 2020 00:20:00 GMT+0900 (GMT+09:00)
102,fitbit,Fri Mar 13 2020 05:52:30 GMT+0900 (GMT+09:00),0,rem,270,Sat Mar 14 2020 00:20:00 GMT+0900 (GMT+09:00)
103,fitbit,Fri Mar 13 2020 05:57:00 GMT+0900 (GMT+09:00),0,light,1290,Sat Mar 14 2020 00:20:00 GMT+0900 (GMT+09:00)
104,fitbit,Fri Mar 13 2020 06:18:30 GMT+0900 (GMT+09:00),0,rem,2490,Sat Mar 14 2020 00:20:00 GMT+0900 (GMT+09:00)
105,fitbit,Fri Mar 13 2020 07:00:00 GMT+0900 (GMT+09:00),0,light,4020,Sat Mar 14 2020 00:20:00 GMT+0900 (GMT+09:00)
106,fitbit,Fri Mar 13 2020 08:07:00 GMT+0900 (GMT+09:00),0,rem,1680,Sat Mar 14 2020 00:20:00 GMT+0900 (GMT+09:00)
107,fitbit,Fri Mar 13 2020 08:35:00 GMT+0900 (GMT+09:00),0,light,1530,Sat Mar 14 2020 00:20:00 GMT+0900 (GMT+09:00)
108,fitbit,Fri Mar 13 2020 09:00:30 GMT+0900 (GMT+09:00),0,wake,270,Sat Mar 14 2020 00:20:00 GMT+0900 (GMT+09:00)
109,fitbit,Fri Mar 13 2020 09:05:00 GMT+0900 (GMT+09:00),0,light,1230,Sat Mar 14 2020 00:20:00 GMT+0900 (GMT+09:00)
110,fitbit,Sun Mar 15 2020 02:28:30 GMT+0900 (GMT+09:00),0,wake,540,Mon Mar 16 2020 00:20:00 GMT+0900 (GMT+09:00)
111,fitbit,Sun Mar 15 2020 02:37:30 GMT+0900 (GMT+09:00),0,light,750,Mon Mar 16 2020 00:20:00 GMT+0900 (GMT+09:00)
112,fitbit,Sun Mar 15 2020 02:50:00 GMT+0900 (GMT+09:00),0,deep,2430,Mon Mar 16 2020 00:20:00 GMT+0900 (GMT+09:00)
113,fitbit,Sun Mar 15 2020 03:30:30 GMT+0900 (GMT+09:00),0,light,4260,Mon Mar 16 2020 00:20:00 GMT+0900 (GMT+09:00)
114,fitbit,Sun Mar 15 2020 04:41:30 GMT+0900 (GMT+09:00),0,deep,1920,Mon Mar 16 2020 00:20:00 GMT+0900 (GMT+09:00)
115,fitbit,Sun Mar 15 2020 05:13:30 GMT+0900 (GMT+09:00),0,light,990,Mon Mar 16 2020 00:20:00 GMT+0900 (GMT+09:00)
116,fitbit,Sun Mar 15 2020 05:30:00 GMT+0900 (GMT+09:00),0,rem,300,Mon Mar 16 2020 00:20:00 GMT+0900 (GMT+09:00)
117,fitbit,Sun Mar 15 2020 05:35:00 GMT+0900 (GMT+09:00),0,light,5520,Mon Mar 16 2020 00:20:00 GMT+0900 (GMT+09:00)
118,fitbit,Sun Mar 15 2020 07:07:00 GMT+0900 (GMT+09:00),0,rem,1050,Mon Mar 16 2020 00:20:00 GMT+0900 (GMT+09:00)
119,fitbit,Sun Mar 15 2020 07:24:30 GMT+0900 (GMT+09:00),0,wake,270,Mon Mar 16 2020 00:20:00 GMT+0900 (GMT+09:00)
120,fitbit,Sun Mar 15 2020 07:29:00 GMT+0900 (GMT+09:00),0,light,3720,Mon Mar 16 2020 00:20:00 GMT+0900 (GMT+09:00)
121,fitbit,Sun Mar 15 2020 08:31:00 GMT+0900 (GMT+09:00),0,rem,2880,Mon Mar 16 2020 00:20:00 GMT+0900 (GMT+09:00)
122,fitbit,Sun Mar 15 2020 09:19:00 GMT+0900 (GMT+09:00),0,light,3150,Mon Mar 16 2020 00:20:00 GMT+0900 (GMT+09:00)
123,fitbit,Sun Mar 15 2020 10:11:30 GMT+0900 (GMT+09:00),0,rem,1350,Mon Mar 16 2020 00:20:00 GMT+0900 (GMT+09:00)
124,fitbit,Sun Mar 15 2020 10:34:00 GMT+0900 (GMT+09:00),0,light,240,Mon Mar 16 2020 00:20:00 GMT+0900 (GMT+09:00)
125,fitbit,Sun Mar 15 2020 10:38:00 GMT+0900 (GMT+09:00),0,rem,1320,Mon Mar 16 2020 00:20:00 GMT+0900 (GMT+09:00)
126,fitbit,Sun Mar 15 2020 11:00:00 GMT+0900 (GMT+09:00),0,light,750,Mon Mar 16 2020 00:20:00 GMT+0900 (GMT+09:00)
127,fitbit,Sun Mar 15 2020 11:12:30 GMT+0900 (GMT+09:00),0,deep,1860,Mon Mar 16 2020 00:20:00 GMT+0900 (GMT+09:00)
128,fitbit,Sun Mar 15 2020 11:43:30 GMT+0900 (GMT+09:00),0,rem,2940,Mon Mar 16 2020 00:20:00 GMT+0900 (GMT+09:00)
129,fitbit,Sun Mar 15 2020 12:32:30 GMT+0900 (GMT+09:00),0,light,270,Mon Mar 16 2020 00:20:00 GMT+0900 (GMT+09:00)
130,fitbit,Sun Mar 15 2020 12:37:00 GMT+0900 (GMT+09:00),0,wake,450,Mon Mar 16 2020 00:20:00 GMT+0900 (GMT+09:00)
131,fitbit,Mon Mar 16 2020 04:14:30 GMT+0900 (GMT+09:00),0,wake,30,Tue Mar 17 2020 00:20:00 GMT+0900 (GMT+09:00)
132,fitbit,Mon Mar 16 2020 04:15:00 GMT+0900 (GMT+09:00),0,light,2910,Tue Mar 17 2020 00:20:00 GMT+0900 (GMT+09:00)
133,fitbit,Mon Mar 16 2020 05:03:30 GMT+0900 (GMT+09:00),0,deep,780,Tue Mar 17 2020 00:20:00 GMT+0900 (GMT+09:00)
134,fitbit,Mon Mar 16 2020 05:16:30 GMT+0900 (GMT+09:00),0,light,780,Tue Mar 17 2020 00:20:00 GMT+0900 (GMT+09:00)
135,fitbit,Mon Mar 16 2020 05:29:30 GMT+0900 (GMT+09:00),0,rem,1470,Tue Mar 17 2020 00:20:00 GMT+0900 (GMT+09:00)
136,fitbit,Mon Mar 16 2020 05:54:00 GMT+0900 (GMT+09:00),0,light,660,Tue Mar 17 2020 00:20:00 GMT+0900 (GMT+09:00)
137,fitbit,Mon Mar 16 2020 06:05:00 GMT+0900 (GMT+09:00),0,deep,270,Tue Mar 17 2020 00:20:00 GMT+0900 (GMT+09:00)
138,fitbit,Mon Mar 16 2020 06:09:30 GMT+0900 (GMT+09:00),0,light,300,Tue Mar 17 2020 00:20:00 GMT+0900 (GMT+09:00)
139,fitbit,Mon Mar 16 2020 06:14:30 GMT+0900 (GMT+09:00),0,deep,270,Tue Mar 17 2020 00:20:00 GMT+0900 (GMT+09:00)
140,fitbit,Mon Mar 16 2020 06:19:00 GMT+0900 (GMT+09:00),0,wake,210,Tue Mar 17 2020 00:20:00 GMT+0900 (GMT+09:00)
141,fitbit,Mon Mar 16 2020 06:22:30 GMT+0900 (GMT+09:00),0,light,1890,Tue Mar 17 2020 00:20:00 GMT+0900 (GMT+09:00)
142,fitbit,Mon Mar 16 2020 06:54:00 GMT+0900 (GMT+09:00),0,wake,210,Tue Mar 17 2020 00:20:00 GMT+0900 (GMT+09:00)
143,fitbit,Mon Mar 16 2020 06:57:30 GMT+0900 (GMT+09:00),0,rem,1590,Tue Mar 17 2020 00:20:00 GMT+0900 (GMT+09:00)
144,fitbit,Mon Mar 16 2020 07:24:00 GMT+0900 (GMT+09:00),0,light,1290,Tue Mar 17 2020 00:20:00 GMT+0900 (GMT+09:00)
145,fitbit,Mon Mar 16 2020 07:45:30 GMT+0900 (GMT+09:00),0,deep,1710,Tue Mar 17 2020 00:20:00 GMT+0900 (GMT+09:00)
146,fitbit,Mon Mar 16 2020 08:14:00 GMT+0900 (GMT+09:00),0,light,660,Tue Mar 17 2020 00:20:00 GMT+0900 (GMT+09:00)
147,fitbit,Mon Mar 16 2020 08:25:00 GMT+0900 (GMT+09:00),0,rem,1560,Tue Mar 17 2020 00:20:00 GMT+0900 (GMT+09:00)
148,fitbit,Mon Mar 16 2020 08:51:00 GMT+0900 (GMT+09:00),0,light,3660,Tue Mar 17 2020 00:20:00 GMT+0900 (GMT+09:00)
149,fitbit,Mon Mar 16 2020 09:52:00 GMT+0900 (GMT+09:00),0,rem,510,Tue Mar 17 2020 00:20:00 GMT+0900 (GMT+09:00)
150,fitbit,Mon Mar 16 2020 10:00:30 GMT+0900 (GMT+09:00),0,light,3270,Tue Mar 17 2020 00:20:00 GMT+0900 (GMT+09:00)
151,fitbit,Mon Mar 16 2020 10:55:00 GMT+0900 (GMT+09:00),0,deep,1800,Tue Mar 17 2020 00:20:00 GMT+0900 (GMT+09:00)
152,fitbit,Mon Mar 16 2020 11:25:00 GMT+0900 (GMT+09:00),0,light,240,Tue Mar 17 2020 00:20:00 GMT+0900 (GMT+09:00)
153,fitbit,Mon Mar 16 2020 11:29:00 GMT+0900 (GMT+09:00),0,rem,1860,Tue Mar 17 2020 00:20:00 GMT+0900 (GMT+09:00)
154,fitbit,Mon Mar 16 2020 12:00:00 GMT+0900 (GMT+09:00),0,light,360,Tue Mar 17 2020 00:20:00 GMT+0900 (GMT+09:00)
155,fitbit,Tue Mar 17 2020 03:02:00 GMT+0900 (GMT+09:00),0,wake,630,Wed Mar 18 2020 00:20:00 GMT+0900 (GMT+09:00)
156,fitbit,Tue Mar 17 2020 03:12:30 GMT+0900 (GMT+09:00),0,light,1350,Wed Mar 18 2020 00:20:00 GMT+0900 (GMT+09:00)
157,fitbit,Tue Mar 17 2020 03:35:00 GMT+0900 (GMT+09:00),0,deep,960,Wed Mar 18 2020 00:20:00 GMT+0900 (GMT+09:00)
158,fitbit,Tue Mar 17 2020 03:51:00 GMT+0900 (GMT+09:00),0,light,1740,Wed Mar 18 2020 00:20:00 GMT+0900 (GMT+09:00)
159,fitbit,Tue Mar 17 2020 04:20:00 GMT+0900 (GMT+09:00),0,rem,1200,Wed Mar 18 2020 00:20:00 GMT+0900 (GMT+09:00)
160,fitbit,Tue Mar 17 2020 04:40:00 GMT+0900 (GMT+09:00),0,light,630,Wed Mar 18 2020 00:20:00 GMT+0900 (GMT+09:00)
161,fitbit,Tue Mar 17 2020 04:50:30 GMT+0900 (GMT+09:00),0,deep,780,Wed Mar 18 2020 00:20:00 GMT+0900 (GMT+09:00)
162,fitbit,Tue Mar 17 2020 05:03:30 GMT+0900 (GMT+09:00),0,light,300,Wed Mar 18 2020 00:20:00 GMT+0900 (GMT+09:00)
163,fitbit,Tue Mar 17 2020 05:08:30 GMT+0900 (GMT+09:00),0,deep,1290,Wed Mar 18 2020 00:20:00 GMT+0900 (GMT+09:00)
164,fitbit,Tue Mar 17 2020 05:30:00 GMT+0900 (GMT+09:00),0,light,3450,Wed Mar 18 2020 00:20:00 GMT+0900 (GMT+09:00)
165,fitbit,Tue Mar 17 2020 06:27:30 GMT+0900 (GMT+09:00),0,rem,1530,Wed Mar 18 2020 00:20:00 GMT+0900 (GMT+09:00)
166,fitbit,Tue Mar 17 2020 06:53:00 GMT+0900 (GMT+09:00),0,wake,510,Wed Mar 18 2020 00:20:00 GMT+0900 (GMT+09:00)
